127.0.0.1
118.70.74.179
42.112.233.54
113.22.1.43
42.113.159.35
113.185.1.238
183.81.7.22
113.178.49.56
113.185.5.173
14.175.121.56
42.112.235.88
42.112.252.59
183.81.7.247
42.113.58.87
117.7.131.250
104.45.18.178
42.112.238.60
127.0.0.1
::1
113.190.202.242
23.99.101.118
13.76.241.210
14.232.63.25
120.138.68.219
14.162.178.105
183.81.53.183
113.190.173.93
66.220.152.173
42.112.153.217
113.190.193.89
66.220.152.187
113.190.201.74
116.101.135.213
173.252.90.100
118.70.151.130
42.112.159.88
1.55.176.91
27.67.20.43
66.220.152.168
14.177.205.175
14.162.196.0
37.213.222.165
188.187.164.44
40.78.146.128
183.81.52.43
1.55.42.162
1.55.93.254
54.173.35.129
66.102.6.159
66.102.6.158
173.252.90.97
113.190.254.75
14.162.14.87
42.113.181.172
14.177.224.231
64.233.172.161
1.55.182.221
173.252.124.210
173.252.124.224
173.252.91.168
173.252.124.221
173.252.124.227
173.252.124.230
173.252.124.200
173.252.124.217
::1
222.252.93.98
123.24.206.88
207.241.230.163
207.241.226.215
207.241.225.86
::1
127.0.0.1
123.24.203.81
207.241.229.195
207.241.229.194
207.241.229.196
113.190.194.118
203.119.8.103
123.16.156.49
64.246.165.160
::1
14.167.173.195
58.187.116.252
::1
150.70.188.172
150.70.188.166
66.249.79.90
66.249.79.92
66.249.79.88
150.70.188.169
64.233.172.138
150.70.188.167
150.70.188.175
50.19.154.226
150.70.188.168
64.233.172.241
66.249.66.208
66.249.66.210
66.249.66.212
66.249.73.80
66.249.73.82
64.233.172.243
66.249.69.241
66.102.6.204
13.57.15.222
50.112.194.65
118.70.127.223
52.27.2.86
66.249.65.210
150.70.188.180
150.70.188.176
150.70.188.165
150.70.188.170
66.102.6.114
66.102.6.116
150.70.188.171
150.70.188.177
14.232.78.108
150.70.188.179
14.177.204.23
66.102.6.112
100.87.3.99
100.87.12.5
66.249.71.88
66.249.79.57
66.249.71.92
123.17.152.6
66.249.71.90
100.74.177.89
14.162.135.79
123.16.77.154
64.233.172.159
100.70.15.232
14.232.35.14
59.153.244.206
123.24.205.25
150.70.188.178
52.205.212.221
100.70.195.159
59.153.244.68
52.205.178.235
40.77.167.141
64.233.172.142
66.249.79.63
66.249.79.60
66.102.6.241
66.102.6.243
66.220.145.153
69.171.224.209
173.252.88.248
173.252.85.212
173.252.85.224
173.252.114.119
173.252.91.107
173.252.92.69
69.63.188.119
173.252.90.122
69.171.225.44
173.252.124.216
173.252.124.233
116.97.38.251
100.70.222.146
69.171.225.35
173.252.85.200
69.171.225.136
113.190.144.222
27.73.60.66
66.102.6.206
66.102.6.202
66.102.6.239
113.190.206.219
123.16.157.250
66.102.6.86
66.102.6.87
45.122.232.154
66.102.6.150
66.102.6.151
52.200.221.20
14.231.174.210
173.252.123.137
69.171.240.21
173.252.85.201
69.171.240.17
173.252.86.90
14.162.191.228
66.220.151.215
66.220.148.107
66.102.7.134
14.162.184.24
66.249.79.16
66.249.79.20
66.249.79.18
66.249.71.48
66.249.71.158
66.249.71.157
66.249.71.159
66.220.146.147
66.220.149.18
66.220.145.155
69.171.225.27
173.252.88.245
66.220.156.20
173.252.121.115
173.252.124.226
173.252.91.102
173.252.115.170
66.220.152.131
173.252.88.13
173.252.84.58
173.252.123.180
173.252.124.22
173.252.124.26
173.252.124.211
173.252.100.205
173.252.108.119
173.252.100.217
66.249.66.89
66.249.66.88
66.249.66.90
217.69.133.227
217.69.133.232
217.69.133.228
217.69.133.229
104.209.188.207
217.69.133.69
217.69.133.230
217.69.133.231
217.69.133.233
66.220.145.149
69.171.225.33
69.171.225.160
66.220.146.28
66.220.148.192
217.69.134.183
217.69.134.176
217.69.133.2
217.69.134.174
66.220.152.99
173.252.92.70
173.252.95.21
66.220.157.224
173.252.124.66
173.252.123.138
66.220.156.147
27.72.30.15
52.86.152.120
217.69.133.84
69.171.225.77
66.220.146.30
66.220.148.135
69.171.225.135
69.171.225.85
66.220.151.213
66.220.146.144
66.249.79.116
66.249.79.112
66.220.146.180
173.252.124.225
66.249.65.134
14.162.145.140
217.69.133.67
217.69.133.216
34.214.238.128
35.161.229.105
52.37.122.200
34.215.237.127
54.201.230.58
217.69.133.217
217.69.133.85
217.69.133.218
217.69.133.219
217.69.133.215
217.69.134.177
217.69.134.182
217.69.134.188
217.69.134.220
34.212.228.78
34.217.121.183
54.202.28.165
217.69.134.154
217.69.134.185
217.69.134.160
217.69.133.194
217.69.133.4
217.69.134.227
217.69.134.155
217.69.133.5
95.163.255.8
95.163.255.4
217.69.134.178
95.163.255.7
95.163.255.3
95.163.255.6
66.249.69.114
66.249.69.116
34.212.172.251
66.220.146.27
66.220.145.150
66.220.148.131
66.220.148.134
69.171.225.218
14.232.94.89
52.55.49.122
18.207.208.139
54.165.174.18
52.41.79.196
18.237.137.157
174.129.104.21
54.165.156.249
18.236.239.75
35.162.175.82
66.102.6.149
54.152.39.227
69.171.225.134
69.171.225.41
69.171.225.158
54.191.55.37
54.163.83.179
18.232.154.126
54.210.12.200
34.230.50.204
34.207.104.230
54.245.27.119
100.81.192.18
52.42.174.215
14.231.246.119
35.166.2.215
54.236.238.242
54.173.37.184
52.114.14.102
34.227.109.119
54.86.92.60
107.22.104.194
52.205.251.80
34.214.160.193
54.237.219.72
35.165.53.55
52.37.117.116
54.152.12.213
54.208.201.232
54.84.155.151
34.217.65.137
52.37.28.253
52.114.6.38
54.149.141.170
54.68.14.25
54.187.12.227
34.228.235.187
54.174.171.62
34.203.194.217
34.209.136.231
54.213.33.200
52.27.9.6
54.218.1.176
34.217.78.50
18.237.58.78
34.211.48.6
34.211.166.45
34.210.73.87
54.173.186.110
18.232.70.83
18.208.170.155
34.207.203.154
34.229.233.161
34.238.241.216
54.201.100.155
34.205.20.212
18.236.211.130
52.40.20.219
54.149.165.191
184.73.48.61
34.214.123.196
54.218.108.178
18.232.76.134
54.213.109.223
34.216.180.125
52.91.71.135
54.236.226.141
18.237.95.39
18.236.155.116
18.233.148.104
54.226.181.186
34.217.55.4
54.162.17.118
52.42.129.76
54.196.19.188
69.171.224.248
66.220.151.183
35.171.167.152
54.165.212.229
18.233.98.91
14.162.187.14
34.207.239.213
34.217.128.237
35.166.31.33
66.249.82.176
66.249.82.180
66.102.6.85
192.168.1.40
192.168.1.32
192.168.1.30
123.16.149.210
64.233.172.239
64.233.172.140
207.46.13.152
207.46.13.155
66.249.64.80
40.77.167.43
207.46.13.242
157.55.39.204
40.77.167.41
95.163.255.96
157.55.39.241
40.77.167.159
40.77.167.157
66.249.79.59
66.249.79.56
66.249.79.62
100.68.74.107
207.46.13.215
117.5.162.135
113.178.39.186
40.77.167.7
207.46.13.114
66.249.69.39
66.249.69.43
157.55.39.99
40.77.167.14
157.55.39.244
100.68.248.164
40.77.167.66
207.46.13.43
207.46.13.32
207.46.13.10
157.55.39.121
40.77.167.75
66.249.69.41
207.46.13.94
157.55.39.69
207.46.13.9
157.55.39.158
13.66.139.0
66.249.69.169
66.249.69.167
40.77.167.10
40.77.167.142
212.8.253.137
40.77.167.101
207.46.13.179
207.46.13.93
40.77.167.1
40.77.167.128
40.77.167.120
157.55.39.163
207.46.13.206
40.77.167.30
118.70.181.236
95.163.255.95
100.74.58.187
46.229.168.148
46.229.168.146
58.187.145.151
46.229.168.145
46.229.168.154
46.229.168.152
46.229.168.150
46.229.168.140
95.163.255.92
46.229.168.149
14.162.187.174
95.163.255.9
95.163.255.5
52.90.210.212
34.227.28.217
113.190.194.218
46.229.168.129
117.4.247.38
113.22.59.121
46.229.168.153
46.229.168.144
46.229.168.138
14.162.203.189
42.118.197.148
118.70.118.22
14.248.85.156
14.177.236.9
1.55.209.125
58.187.21.60
42.112.238.57
27.72.29.144
66.102.6.231
58.187.66.137
66.102.6.235
14.232.210.122
66.102.6.233
123.16.241.103
123.24.208.208
66.102.6.145
66.102.6.146
66.102.6.147
14.248.133.130
64.233.172.42
64.233.172.40
14.177.220.159
27.67.131.219
14.231.237.140
66.102.7.76
1.55.227.246
58.187.29.90
64.233.172.204
64.233.172.202
27.66.131.129
27.67.10.72
42.114.56.143
14.162.156.254
64.233.172.10
64.233.172.12
118.70.81.203
1.52.123.235
113.190.233.15
64.233.172.8
14.251.212.166
64.233.172.22
113.23.48.45
59.153.242.10
59.153.243.10
42.118.50.221
113.190.248.122
173.252.95.37
173.252.127.30
173.252.127.23
173.252.127.41
173.252.127.41
173.252.127.32
173.252.127.22
173.252.127.8
173.252.127.36
173.252.127.1
69.171.251.11
173.252.127.37
173.252.127.14
173.252.127.38
113.178.61.28
173.252.127.12
173.252.127.9
173.252.79.4
173.252.79.5
173.252.79.7
173.252.87.7
173.252.79.2
31.13.115.17
173.252.79.3
173.252.79.6
173.252.95.26
173.252.87.12
173.252.87.13
173.252.87.22
173.252.87.31
173.252.87.4
173.252.79.8
173.252.127.35
173.252.87.20
199.201.64.137
173.252.83.3
66.220.149.25
173.252.127.39
42.118.2.201
171.255.122.255
27.68.133.131
1.55.64.180
42.118.53.194
42.118.11.95
173.252.127.31
42.118.112.167
42.118.38.54
173.252.95.111
173.252.95.19
173.252.95.22
173.252.95.3
1.55.14.7
42.114.170.216
69.171.251.26
42.114.171.80
205.169.39.171
205.169.39.0
205.169.39.111
205.169.39.35
205.169.39.138
205.169.39.217
69.4.87.74
93.119.227.91
93.119.227.91
93.119.227.91
69.4.89.106
93.119.227.19
62.4.14.198
62.4.14.206
51.15.191.81
195.154.61.206
13.58.65.245
173.249.22.173
212.83.146.233
69.25.58.53
42.114.171.7
3.137.170.249
117.6.135.148
1.55.15.36
112.213.82.101
203.119.9.50
222.252.126.24
58.186.51.3
171.224.178.163
171.255.67.174
58.186.50.245
27.67.25.149
157.245.216.128
104.131.186.62
104.131.0.155
64.246.161.30
1.55.251.19
::1
